…
#### 13.4: Mutating joins 
- A mutating join allows you to combine variables from two tables  
- matches observations by their keys, then copies across variables from one table to the other  

```r
flights2 <- flights %>% 
  select(year:day, hour, origin, dest, tailnum, carrier)
```

```r
flights2
```

```
## # A tibble: 336,776 x 8
##     year month   day  hour origin dest  tailnum carrier
##    <int> <int> <int> <dbl> <chr>  <chr> <chr>   <chr>  
##  1  2013     1     1     5 EWR    IAH   N14228  UA     
##  2  2013     1     1     5 LGA    IAH   N24211  UA     
##  3  2013     1     1     5 JFK    MIA   N619AA  AA     
##  4  2013     1     1     5 JFK    BQN   N804JB  B6     
##  5  2013     1     1     6 LGA    ATL   N668DN  DL     
##  6  2013     1     1     5 EWR    ORD   N39463  UA     
##  7  2013     1     1     6 EWR    FLL   N516JB  B6     
##  8  2013     1     1     6 LGA    IAD   N829AS  EV     
##  9  2013     1     1     6 JFK    MCO   N593JB  B6     
## 10  2013     1     1     6 LGA    ORD   N3ALAA  AA     
## # … with 336,766 more rows
```
- you can combine two datasets with left_join()  

```r
flights2 %>%
  select(-origin, -dest) %>% 
  left_join(airlines, by = "carrier")
```

```
## # A tibble: 336,776 x 7
##     year month   day  hour tailnum carrier name                    
##    <int> <int> <int> <dbl> <chr>   <chr>   <chr>                   
##  1  2013     1     1     5 N14228  UA      United Air Lines Inc.   
##  2  2013     1     1     5 N24211  UA      United Air Lines Inc.   
##  3  2013     1     1     5 N619AA  AA      American Airlines Inc.  
##  4  2013     1     1     5 N804JB  B6      JetBlue Airways         
##  5  2013     1     1     6 N668DN  DL      Delta Air Lines Inc.    
##  6  2013     1     1     5 N39463  UA      United Air Lines Inc.   
##  7  2013     1     1     6 N516JB  B6      JetBlue Airways         
##  8  2013     1     1     6 N829AS  EV      ExpressJet Airlines Inc.
##  9  2013     1     1     6 N593JB  B6      JetBlue Airways         
## 10  2013     1     1     6 N3ALAA  AA      American Airlines Inc.  
## # … with 336,766 more rows
```
- you can get the same result with the mutate function:

```r
flights2 %>%
  select(-origin, -dest) %>% 
  mutate(name = airlines$name[match(carrier, airlines$carrier)])
```

```
## # A tibble: 336,776 x 7
##     year month   day  hour tailnum carrier name                    
##    <int> <int> <int> <dbl> <chr>   <chr>   <chr>                   
##  1  2013     1     1     5 N14228  UA      United Air Lines Inc.   
##  2  2013     1     1     5 N24211  UA      United Air Lines Inc.   
##  3  2013     1     1     5 N619AA  AA      American Airlines Inc.  
##  4  2013     1     1     5 N804JB  B6      JetBlue Airways         
##  5  2013     1     1     6 N668DN  DL      Delta Air Lines Inc.    
##  6  2013     1     1     5 N39463  UA      United Air Lines Inc.   
##  7  2013     1     1     6 N516JB  B6      JetBlue Airways         
##  8  2013     1     1     6 N829AS  EV      ExpressJet Airlines Inc.
##  9  2013     1     1     6 N593JB  B6      JetBlue Airways         
## 10  2013     1     1     6 N3ALAA  AA      American Airlines Inc.  
## # … with 336,766 more rows
```
…
```r
flights2 %>% 
  left_join(airports, c("dest" = "faa"))  %>% 
  left_join(airports, c("origin" = "faa"))
```

```
## # A tibble: 336,776 x 22
##     year month   day  hour origin dest  tailnum carrier name.x lat.x lon.x
##    <int> <int> <int> <dbl> <chr>  <chr> <chr>   <chr>   <chr>  <dbl> <dbl>
##  1  2013     1     1     5 EWR    IAH   N14228  UA      Georg…  30.0 -95.3
##  2  2013     1     1     5 LGA    IAH   N24211  UA      Georg…  30.0 -95.3
##  3  2013     1     1     5 JFK    MIA   N619AA  AA      Miami…  25.8 -80.3
##  4  2013     1     1     5 JFK    BQN   N804JB  B6      <NA>    NA    NA  
##  5  2013     1     1     6 LGA    ATL   N668DN  DL      Harts…  33.6 -84.4
##  6  2013     1     1     5 EWR    ORD   N39463  UA      Chica…  42.0 -87.9
##  7  2013     1     1     6 EWR    FLL   N516JB  B6      Fort …  26.1 -80.2
##  8  2013     1     1     6 LGA    IAD   N829AS  EV      Washi…  38.9 -77.5
##  9  2013     1     1     6 JFK    MCO   N593JB  B6      Orlan…  28.4 -81.3
## 10  2013     1     1     6 LGA    ORD   N3ALAA  AA      Chica…  42.0 -87.9
## # … with 336,766 more rows, and 11 more variables: alt.x <int>,
## #   tz.x <dbl>, dst.x <chr>, tzone.x <chr>, name.y <chr>, lat.y <dbl>,
## #   lon.y <dbl>, alt.y <int>, tz.y <dbl>, dst.y <chr>, tzone.y <chr>
```
…
```r
flights %>%
  semi_join(planes, by = "tailnum") %>%
  count(flight) %>%
  filter(n>100)
```

```
## # A tibble: 944 x 2
##    flight     n
##     <int> <int>
##  1      1   697
##  2      3   624
##  3      4   393
##  4      5   319
##  5      6   210
##  6      7   237
##  7      8   232
##  8      9   152
##  9     11   538
## 10     12   128
## # … with 934 more rows
```
4. Find the 48 hours (over the course of the whole year) that have the worst delays. Cross-reference it with the weather data. Can you see any patterns?

```r
arrange(flights, year, month, day, desc(dep_delay))
```

```
## # A tibble: 336,776 x 19
##     year month   day dep_time sched_dep_time dep_delay arr_time
##    <int> <int> <int>    <int>          <int>     <dbl>    <int>
##  1  2013     1     1      848           1835       853     1001
##  2  2013     1     1     2343           1724       379      314
##  3  2013     1     1     1815           1325       290     2120
##  4  2013     1     1     2205           1720       285       46
##  5  2013     1     1     1842           1422       260     1958
##  6  2013     1     1     2115           1700       255     2330
##  7  2013     1     1     2006           1630       216     2230
##  8  2013     1     1     2312           2000       192       21
##  9  2013     1     1     1942           1705       157     2124
## 10  2013     1     1     1938           1703       155     2109
## # … with 336,766 more rows, and 12 more variables: sched_arr_time <int>,
## #   arr_delay <dbl>, carrier <chr>, flight <int>, tailnum <chr>,
## #   origin <chr>, dest <chr>, air_time <dbl>, distance <dbl>, hour <dbl>,
## #   minute <dbl>, time_hour <dttm>
```
…
