…
#### 12.6: Case Study  
Exercises  
3. I claimed that iso2 and iso3 were redundant with country. Confirm this claim.

```r
who1 <- who %>% 
  gather(new_sp_m014:newrel_f65, key = "key", value = "cases", na.rm = TRUE)
who1
```

```
## # A tibble: 76,046 x 6
##    country     iso2  iso3   year key         cases
##    <chr>       <chr> <chr> <int> <chr>       <int>
##  1 Afghanistan AF    AFG    1997 new_sp_m014     0
##  2 Afghanistan AF    AFG    1998 new_sp_m014    30
##  3 Afghanistan AF    AFG    1999 new_sp_m014     8
##  4 Afghanistan AF    AFG    2000 new_sp_m014    52
##  5 Afghanistan AF    AFG    2001 new_sp_m014   129
##  6 Afghanistan AF    AFG    2002 new_sp_m014    90
##  7 Afghanistan AF    AFG    2003 new_sp_m014   127
##  8 Afghanistan AF    AFG    2004 new_sp_m014   139
##  9 Afghanistan AF    AFG    2005 new_sp_m014   151
## 10 Afghanistan AF    AFG    2006 new_sp_m014   193
## # … with 76,036 more rows
```

```r
select(who, country, iso2, iso3)
```

```
## # A tibble: 7,240 x 3
##    country     iso2  iso3 
##    <chr>       <chr> <chr>
##  1 Afghanistan AF    AFG  
##  2 Afghanistan AF    AFG  
##  3 Afghanistan AF    AFG  
##  4 Afghanistan AF    AFG  
##  5 Afghanistan AF    AFG  
##  6 Afghanistan AF    AFG  
##  7 Afghanistan AF    AFG  
##  8 Afghanistan AF    AFG  
##  9 Afghanistan AF    AFG  
## 10 Afghanistan AF    AFG  
## # … with 7,230 more rows
```
…
```r
who2<- who %>%
  gather(new_sp_m014:newrel_f65, key = "key", value = "cases", na.rm = TRUE) %>% 
  mutate(key = stringr::str_replace(key, "newrel", "new_rel")) %>%
  separate(key, c("new", "var", "sexage")) %>% 
  select(-new, -iso2, -iso3) %>% 
  separate(sexage, c("sex", "age"), sep = 1)
```

```r
who2
```

```
## # A tibble: 76,046 x 6
##    country      year var   sex   age   cases
##    <chr>       <int> <chr> <chr> <chr> <int>
##  1 Afghanistan  1997 sp    m     014       0
##  2 Afghanistan  1998 sp    m     014      30
##  3 Afghanistan  1999 sp    m     014       8
##  4 Afghanistan  2000 sp    m     014      52
##  5 Afghanistan  2001 sp    m     014     129
##  6 Afghanistan  2002 sp    m     014      90
##  7 Afghanistan  2003 sp    m     014     127
##  8 Afghanistan  2004 sp    m     014     139
##  9 Afghanistan  2005 sp    m     014     151
## 10 Afghanistan  2006 sp    m     014     193
## # … with 76,036 more rows
```
…
